…
``` r
# impute NAs at "LotFrontage"
all_data <- all_data %>%
  mutate(LotFrontage = ifelse(is.na(LotFrontage), round(predict(lotfront_fit, .)), LotFrontage))
```

MasVnrArea:

``` r
all_data %>%
  filter(is.na(MasVnrArea)) %>%
  select(Id, MasVnrType, MasVnrArea)
```

    ## # A tibble: 23 x 3
    ##       Id MasVnrType MasVnrArea
    ##    <dbl> <chr>           <dbl>
    ##  1   235 <NA>               NA
    ##  2   530 <NA>               NA
    ##  3   651 <NA>               NA
    ##  4   937 <NA>               NA
    ##  5   974 <NA>               NA
    ##  6   978 <NA>               NA
    ##  7  1244 <NA>               NA
    ##  8  1279 <NA>               NA
    ##  9  1692 <NA>               NA
    ## 10  1707 <NA>               NA
    ## # ... with 13 more rows
…
